id,type,index,fieldtype,name,label,description,shortform
1,1,0,3,"Title",Title,,true
2,1,1,1,"Company",Company,,true
3,1,2,6,"Posted",Posted,,false
4,1,4,6,"Deadline",Deadline,,false
5,1,5,2,"Requirements",Requirements,,false
6,2,0,3,"Name",Name,,true
7,3,0,3,"Requirement",Requirement,,true
