id,field,post,value
1,1,1,"Programmier-Spezi"
2,3,1,"2019-03-30"
3,4,1,"2019-05-30"
4,1,2,"Web Bastler"
5,3,2,"2019-03-30"
6,4,2,"2019-05-30"
7,6,3,"Apple"
8,6,4,"Microsoft"
9,7,5,"C#"
10,7,6,"Javascript"
11,7,7,"Java"
